\relax 
\select@language{english}
\@writefile{toc}{\select@language{english}}
\@writefile{lof}{\select@language{english}}
\@writefile{lot}{\select@language{english}}
\@writefile{toc}{\contentsline {section}{\numberline {1}Summary of Project}{1}}
\@writefile{toc}{\contentsline {section}{\numberline {2}Implementation and Assumptions}{1}}
\@writefile{toc}{\contentsline {section}{\numberline {3}Test Images}{1}}
\@writefile{lof}{\contentsline {figure}{\numberline {1}{\ignorespaces The 6 test images in order of complexity}}{1}}
\newlabel{fig:testimages}{{1}{1}}
\@writefile{toc}{\contentsline {section}{\numberline {4}Comparison of Filtering}{1}}
\@writefile{toc}{\contentsline {subsection}{\numberline {4.1}No Filtering}{1}}
\@writefile{toc}{\contentsline {subsection}{\numberline {4.2}Filtering/blurring the image before thresholding}{2}}
\@writefile{lot}{\contentsline {table}{\numberline {1}{\ignorespaces Number of pixels distorted by noise for various filtering techniques}}{2}}
\newlabel{table:filtering}{{1}{2}}
\@writefile{lof}{\contentsline {figure}{\numberline {2}{\ignorespaces Comparison of 1D filtering methods}}{2}}
\newlabel{fig:filtering}{{2}{2}}
\@writefile{toc}{\contentsline {subsection}{\numberline {4.3}Filtering/blurring the image after thresholding}{2}}
\@writefile{toc}{\contentsline {section}{\numberline {5}Comparison of Centroid Finding Methods}{3}}
\@writefile{toc}{\contentsline {section}{\numberline {6}Results on Photos}{3}}
\@writefile{lof}{\contentsline {figure}{\numberline {3}{\ignorespaces Four of the photos used for testing.}}{3}}
\newlabel{fig:testphotos}{{3}{3}}
\@writefile{toc}{\contentsline {section}{\numberline {7}Ram Use}{4}}
\@writefile{toc}{\contentsline {section}{\numberline {8}Preliminary Conclusions}{4}}
\@writefile{toc}{\contentsline {section}{\numberline {9}Further Development}{4}}
\@writefile{toc}{\contentsline {section}{Appendix \numberline {A}Noise Generation for test images}{5}}
\newlabel{app:noise}{{A}{5}}
