\relax 
\citation{bib:sense}
\citation{bib:blob1}
\citation{bib:blob2}
\citation{bib:arduino}
\citation{bib:atmel}
\citation{bib:sliding}
\@writefile{toc}{\contentsline {section}{\numberline {I}Introduction}{1}}
\@writefile{toc}{\contentsline {section}{\numberline {II}Overview}{1}}
\@writefile{toc}{\contentsline {subsection}{\numberline {\unhbox \voidb@x \hbox {II-A}}Background}{1}}
\@writefile{lof}{\contentsline {figure}{\numberline {1}{\ignorespaces Locating the centroid using filtering passes}}{1}}
\newlabel{fig:passes}{{1}{1}}
\@writefile{toc}{\contentsline {subsection}{\numberline {\unhbox \voidb@x \hbox {II-B}}Method}{1}}
\citation{bib:noise}
\citation{bib:gaussiansegmentation}
\citation{bib:threshsold}
\citation{bib:tv}
\citation{bib:face}
\citation{bib:ov2640}
\citation{bib:pal}
\@writefile{lof}{\contentsline {figure}{\numberline {2}{\ignorespaces Sampling the image using a sliding window}}{2}}
\newlabel{fig:filtering}{{2}{2}}
\@writefile{lof}{\contentsline {figure}{\numberline {3}{\ignorespaces Locating the centroid on a per-pixel basis}}{2}}
\newlabel{fig:perpixel}{{3}{2}}
\@writefile{toc}{\contentsline {subsection}{\numberline {\unhbox \voidb@x \hbox {II-C}}Gaussian Filtering}{2}}
\@writefile{lof}{\contentsline {figure}{\numberline {4}{\ignorespaces The offset of a past-data only filter}}{2}}
\newlabel{fig:center}{{4}{2}}
\@writefile{toc}{\contentsline {subsection}{\numberline {\unhbox \voidb@x \hbox {II-D}}Thresholding}{2}}
\citation{bib:handbook}
\@writefile{lof}{\contentsline {figure}{\numberline {5}{\ignorespaces Thresholding an image (left) in redness (centre) and blueness (right) }}{3}}
\newlabel{fig:threshold}{{5}{3}}
\@writefile{toc}{\contentsline {subsection}{\numberline {\unhbox \voidb@x \hbox {II-E}}Locating the Centroid}{3}}
\@writefile{toc}{\contentsline {section}{\numberline {III}Implementation Notes}{3}}
\@writefile{toc}{\contentsline {section}{\numberline {IV}Results}{3}}
\@writefile{toc}{\contentsline {subsection}{\numberline {\unhbox \voidb@x \hbox {IV-A}}Test Images}{3}}
\@writefile{lof}{\contentsline {figure}{\numberline {6}{\ignorespaces The 6 test images in order of complexity}}{3}}
\newlabel{fig:testimages}{{6}{3}}
\@writefile{lof}{\contentsline {figure}{\numberline {7}{\ignorespaces Three filtering kernels}}{3}}
\newlabel{fig:kernels}{{7}{3}}
\@writefile{lot}{\contentsline {table}{\numberline {I}{\ignorespaces Number of pixels distorted by noise}}{3}}
\newlabel{table:filtering}{{I}{3}}
\@writefile{lof}{\contentsline {figure}{\numberline {8}{\ignorespaces The results of thresholding for two kernels}}{4}}
\newlabel{fig:compare}{{8}{4}}
\@writefile{toc}{\contentsline {subsection}{\numberline {\unhbox \voidb@x \hbox {IV-B}}Photos}{4}}
\@writefile{lof}{\contentsline {figure}{\numberline {9}{\ignorespaces A test photo under a normal situation}}{4}}
\newlabel{fig:testphoto1}{{9}{4}}
\@writefile{lof}{\contentsline {figure}{\numberline {10}{\ignorespaces A test photo with shadows}}{4}}
\newlabel{fig:testphoto2}{{10}{4}}
\@writefile{lof}{\contentsline {figure}{\numberline {11}{\ignorespaces A test photo where the object is small. Note the finger in the top right causing the offset on the red channel}}{4}}
\newlabel{fig:testphoto4}{{11}{4}}
\@writefile{toc}{\contentsline {subsection}{\numberline {\unhbox \voidb@x \hbox {IV-C}}Ram Usage}{4}}
\citation{bib:ucam}
\@writefile{lof}{\contentsline {figure}{\numberline {12}{\ignorespaces A cluttered test environment}}{5}}
\newlabel{fig:testphoto5}{{12}{5}}
\@writefile{lot}{\contentsline {table}{\numberline {II}{\ignorespaces Data stored by processing section}}{5}}
\newlabel{tab:stored}{{II}{5}}
\@writefile{toc}{\contentsline {section}{\numberline {V}Conclusion}{5}}
\@writefile{toc}{\contentsline {subsection}{\numberline {\unhbox \voidb@x \hbox {V-A}}Further Research}{5}}
\bibcite{bib:sense}{1}
\bibcite{bib:blob1}{2}
\bibcite{bib:blob2}{3}
\bibcite{bib:arduino}{4}
\bibcite{bib:atmel}{5}
\bibcite{bib:sliding}{6}
\bibcite{bib:noise}{7}
\bibcite{bib:handbook}{8}
\bibcite{bib:gaussiansegmentation}{9}
\bibcite{bib:threshsold}{10}
\bibcite{bib:tv}{11}
\bibcite{bib:face}{12}
\bibcite{bib:ov2640}{13}
\bibcite{bib:pal}{14}
\bibcite{bib:ucam}{15}
\@writefile{toc}{\contentsline {subsection}{\numberline {\unhbox \voidb@x \hbox {V-B}}Potential Applications}{6}}
\@writefile{toc}{\contentsline {section}{References}{6}}
