\relax 
\citation{gaussiansegmentation}
\citation{imageprochandbook}
\select@language{english}
\@writefile{toc}{\select@language{english}}
\@writefile{lof}{\select@language{english}}
\@writefile{lot}{\select@language{english}}
\@writefile{toc}{\contentsline {section}{\numberline {1}Introduction}{1}}
\@writefile{toc}{\contentsline {section}{\numberline {2}Background}{1}}
\@writefile{toc}{\contentsline {subsection}{\numberline {2.1}Filtering Kernels}{1}}
\@writefile{toc}{\contentsline {subsection}{\numberline {2.2}Segmentation}{1}}
\@writefile{lof}{\contentsline {figure}{\numberline {1}{\ignorespaces Thresholding an image in YCbCr. From left to right: original image, luminosity, redness, blueness}}{1}}
\newlabel{fig:threshold}{{1}{1}}
\@writefile{toc}{\contentsline {subsection}{\numberline {2.3}Finding Centroids}{1}}
\@writefile{toc}{\contentsline {section}{\numberline {3}Proposed Solution}{2}}
\@writefile{toc}{\contentsline {subsection}{\numberline {3.1}Filtering Kernels}{2}}
\@writefile{lof}{\contentsline {figure}{\numberline {2}{\ignorespaces Three ways of lowering ram usage of a filtering kernel. (a) is to only store three rows, (b) is to do it only in one dimension, and (c) is to only use past data in one dimension. The green square is the pixel being operated on}}{2}}
\newlabel{fig:kernel}{{2}{2}}
\@writefile{toc}{\contentsline {subsection}{\numberline {3.2}Segmentation}{2}}
\@writefile{toc}{\contentsline {subsection}{\numberline {3.3}Finding Centroids}{2}}
\bibcite{gaussiansegmentation}{1}
\bibcite{imageprochandbook}{2}
\@writefile{toc}{\contentsline {section}{\numberline {4}Expected Results}{3}}
